{
    "Autokick": {
        "c0976182976bfd15b08d327ea8db7fbcd": true,
        "c2f51ecfc3602b7121ab2952074825fe6": true,
        "c48e39764ea579e61b4aad546632abbe1": true,
        "c8fa80a2f217c926433da37e06eeb62df": true,
        "c9eb155700e3eed4b91bd01d07343ae3d": true,
        "cb02d2a2c64b97176606d659e5ba32920": true,
        "cb9cc00d3a95cfa0bdefb0d4f0877158f": true,
        "cd2d3e7f60a0765154cc1020726572249": true,
        "cef539188915d34ec5792481a1f23192d": true,
        "cf3b2da247414d803b644d5f99719ade3": true
    },
    "Procancel": {
        "c0976182976bfd15b08d327ea8db7fbcd": true,
        "c2f51ecfc3602b7121ab2952074825fe6": true,
        "c48e39764ea579e61b4aad546632abbe1": true,
        "c8fa80a2f217c926433da37e06eeb62df": true,
        "c9eb155700e3eed4b91bd01d07343ae3d": true,
        "cb02d2a2c64b97176606d659e5ba32920": true,
        "cb9cc00d3a95cfa0bdefb0d4f0877158f": true,
        "cd2d3e7f60a0765154cc1020726572249": true,
        "cef539188915d34ec5792481a1f23192d": true,
        "cf3b2da247414d803b644d5f99719ade3": true
    },
    "Proinvite": {
        "c0976182976bfd15b08d327ea8db7fbcd": true,
        "c2f51ecfc3602b7121ab2952074825fe6": true,
        "c48e39764ea579e61b4aad546632abbe1": true,
        "c8fa80a2f217c926433da37e06eeb62df": true,
        "c9eb155700e3eed4b91bd01d07343ae3d": true,
        "cb02d2a2c64b97176606d659e5ba32920": true,
        "cb9cc00d3a95cfa0bdefb0d4f0877158f": true,
        "cd2d3e7f60a0765154cc1020726572249": true,
        "cef539188915d34ec5792481a1f23192d": true,
        "cf3b2da247414d803b644d5f99719ade3": true
    },
    "Proname": {
        "c2559ca7926f4a631dabca2abc0e94af4": true
    },
    "Proqr": {
        "c0976182976bfd15b08d327ea8db7fbcd": true,
        "c2f51ecfc3602b7121ab2952074825fe6": true,
        "c48e39764ea579e61b4aad546632abbe1": true,
        "c8fa80a2f217c926433da37e06eeb62df": true,
        "c9eb155700e3eed4b91bd01d07343ae3d": true,
        "cb02d2a2c64b97176606d659e5ba32920": true,
        "cb9cc00d3a95cfa0bdefb0d4f0877158f": true,
        "cd2d3e7f60a0765154cc1020726572249": true,
        "cef539188915d34ec5792481a1f23192d": true,
        "cf3b2da247414d803b644d5f99719ade3": true
    },
    "gname": {}
}